<?xml version="1.0" encoding="utf-8"?>
<!-- Generator: Adobe Illustrator 16.0.4, SVG Export Plug-In . SVG Version: 6.00 Build 0)  -->
<!DOCTYPE svg PUBLIC "-//W3C//DTD SVG 1.1//EN" "http://www.w3.org/Graphics/SVG/1.1/DTD/svg11.dtd">
<svg version="1.1" xmlns="http://www.w3.org/2000/svg" xmlns:xlink="http://www.w3.org/1999/xlink" x="0px" y="0px"
	 width="64.896px" height="100px" viewBox="0 0 64.896 100" style="enable-background:new 0 0 64.896 100;" xml:space="preserve">
<style type="text/css">
<![CDATA[
	.st0{fill:none;stroke:#1D1D1B;stroke-width:5.6016;stroke-miterlimit:10;}
	.st1{fill:none;stroke:#1D1D1B;stroke-width:1.433;stroke-linejoin:round;stroke-miterlimit:10;}
	.st2{fill:none;stroke:#1D1D1B;stroke-width:1.2927;stroke-linejoin:round;stroke-miterlimit:10;}
	.st3{fill:none;stroke:#1D1D1B;stroke-width:1.433;stroke-miterlimit:10;}
	.st4{fill:#FFFFFF;}
	.st5{fill:none;}
	.st6{fill:none;stroke:#1D1D1B;stroke-width:5.6016;stroke-linejoin:round;stroke-miterlimit:10;}
]]>
</style>
<g id="keyline">
	<path class="st6" d="M37.78,30.13c0-3.566,0-1.177,0-3.413c0.213-0.16,0.336-0.318,0.336-0.462v-5.941
		c0-0.66-2.453-1.195-5.478-1.195c-3.026,0-5.479,0.535-5.479,1.195v5.941c0,0.144,0.123,0.302,0.337,0.462c0,2.236,0-0.153,0,3.413
		c0,9.388-9.742,9.034-9.742,19.95c0,10.916,0,33.035,0,33.035c0,1.221,0.345,3.518,0.862,4.67
		c1.388,3.086,6.198,5.676,14.022,5.676c7.823,0,12.633-2.59,14.021-5.676c0.518-1.152,0.861-3.449,0.861-4.67
		c0,0,0-22.119,0-33.035C47.521,39.165,37.78,39.518,37.78,30.13z"/>
</g>
<g id="fill">
	<path class="st4" d="M37.78,30.13c0-3.566,0-1.177,0-3.413c0.213-0.16,0.336-0.318,0.336-0.462v-5.941
		c0-0.66-2.453-1.195-5.478-1.195c-3.026,0-5.479,0.535-5.479,1.195v5.941c0,0.144,0.123,0.302,0.337,0.462c0,2.236,0-0.153,0,3.413
		c0,9.388-9.742,9.034-9.742,19.95c0,10.916,0,33.035,0,33.035c0,1.221,0.345,3.518,0.862,4.67
		c1.388,3.086,6.198,5.676,14.022,5.676c7.823,0,12.633-2.59,14.021-5.676c0.518-1.152,0.861-3.449,0.861-4.67
		c0,0,0-22.119,0-33.035C47.521,39.165,37.78,39.518,37.78,30.13z"/>
</g>
<g id="ouline">
	<path class="st2" d="M27.496,27.147c0,6.635,0-3.158,0,2.983c0,9.388-9.742,9.034-9.742,19.95c0,10.916,0,33.035,0,33.035
		c0,1.221,0.345,3.518,0.862,4.67c1.388,3.086,6.198,5.676,14.022,5.676c7.823,0,12.633-2.59,14.021-5.676
		c0.518-1.152,0.861-3.449,0.861-4.67c0,0,0-22.119,0-33.035c0-10.916-9.741-10.562-9.741-19.95c0-6.141,0,3.222,0-3.413"/>
	<path class="st1" d="M38.116,20.314v5.941c0,0.66-2.453,1.621-5.478,1.621c-3.026,0-5.479-0.96-5.479-1.621v-5.941"/>
	<path class="st3" d="M38.116,20.843c0,0.66-2.453,1.196-5.478,1.196c-3.026,0-5.479-0.536-5.479-1.196"/>
	<path class="st3" d="M27.159,20.314c0-0.66,2.453-1.195,5.479-1.195c3.024,0,5.478,0.535,5.478,1.195"/>
</g>
<g id="Layer_5">
</g>
</svg>
