<?xml version="1.0" encoding="utf-8"?>
<!-- Generator: Adobe Illustrator 16.0.4, SVG Export Plug-In . SVG Version: 6.00 Build 0)  -->
<!DOCTYPE svg PUBLIC "-//W3C//DTD SVG 1.1//EN" "http://www.w3.org/Graphics/SVG/1.1/DTD/svg11.dtd">
<svg version="1.1" xmlns="http://www.w3.org/2000/svg" xmlns:xlink="http://www.w3.org/1999/xlink" x="0px" y="0px"
	 width="79.263px" height="100px" viewBox="0 0 79.263 100" style="enable-background:new 0 0 79.263 100;" xml:space="preserve">
<style type="text/css">
<![CDATA[
	.st0{fill:none;stroke:#1D1D1B;stroke-width:5.6016;stroke-miterlimit:10;}
	.st1{fill:none;stroke:#1D1D1B;stroke-width:1.433;stroke-linejoin:round;stroke-miterlimit:10;}
	.st2{fill:none;stroke:#1D1D1B;stroke-width:1.2927;stroke-linejoin:round;stroke-miterlimit:10;}
	.st3{fill:none;stroke:#1D1D1B;stroke-width:1.433;stroke-miterlimit:10;}
	.st4{fill:#FFFFFF;}
	.st5{fill:none;}
	.st6{fill:none;stroke:#1D1D1B;stroke-width:5.6016;stroke-linejoin:round;stroke-miterlimit:10;}
]]>
</style>
<g id="keyline">
	<polygon class="st0" points="44.504,21.127 15.634,33.669 15.634,84.361 33.646,95.87 64.15,78.308 64.15,28.646 	"/>
</g>
<g id="fill">
	<polygon class="st4" points="44.504,21.127 15.634,33.669 15.634,84.361 33.646,95.87 64.15,78.308 64.15,28.646 	"/>
</g>
<g id="ouline">
	<polygon class="st2" points="64.15,28.254 33.646,42.95 33.646,95.477 64.15,77.915 	"/>
	<polygon class="st2" points="33.646,95.477 15.634,83.969 15.634,33.277 33.646,42.95 	"/>
	<polygon class="st2" points="15.634,33.277 44.504,20.734 64.15,28.254 33.646,42.95 	"/>
	<polygon class="st2" points="33.646,42.95 31.219,32.257 45.007,25.938 64.15,28.254 	"/>
	<line class="st2" x1="15.634" y1="33.277" x2="31.85" y2="35.037"/>
	<line class="st2" x1="47.684" y1="26.261" x2="44.504" y2="20.734"/>
</g>
<g id="Layer_5">
</g>
</svg>
