<?xml version="1.0" encoding="utf-8"?>
<!-- Generator: Adobe Illustrator 16.0.4, SVG Export Plug-In . SVG Version: 6.00 Build 0)  -->
<!DOCTYPE svg PUBLIC "-//W3C//DTD SVG 1.1//EN" "http://www.w3.org/Graphics/SVG/1.1/DTD/svg11.dtd">
<svg version="1.1" xmlns="http://www.w3.org/2000/svg" xmlns:xlink="http://www.w3.org/1999/xlink" x="0px" y="0px"
	 width="74.702px" height="100px" viewBox="0 0 74.702 100" style="enable-background:new 0 0 74.702 100;" xml:space="preserve">
<style type="text/css">
<![CDATA[
	.st0{fill:none;stroke:#1D1D1B;stroke-width:5.6016;stroke-miterlimit:10;}
	.st1{fill:none;stroke:#1D1D1B;stroke-width:1.433;stroke-linejoin:round;stroke-miterlimit:10;}
	.st2{fill:none;stroke:#1D1D1B;stroke-width:1.2927;stroke-linejoin:round;stroke-miterlimit:10;}
	.st3{fill:none;stroke:#1D1D1B;stroke-width:1.433;stroke-miterlimit:10;}
	.st4{fill:#FFFFFF;}
	.st5{fill:none;}
	.st6{fill:none;stroke:#1D1D1B;stroke-width:5.6016;stroke-linejoin:round;stroke-miterlimit:10;}
]]>
</style>
<g id="keyline">
	<path class="st0" d="M15.197,38.357c0-2.37,1.761-5.122,3.912-6.115l21.062-9.725c2.152-0.993,5.725-1.119,7.941-0.279l8.811,3.341
		c2.216,0.84,4.029,3.466,4.029,5.836v44.066c0,2.369-1.68,5.276-3.733,6.459L34.183,95.203c-2.054,1.183-5.371,1.109-7.37-0.164
		l-7.981-5.079c-2-1.272-3.635-4.253-3.635-6.622V38.357z"/>
</g>
<g id="fill">
	<path class="st4" d="M15.197,38.357c0-2.37,1.761-5.122,3.912-6.115l21.062-9.725c2.152-0.993,5.725-1.119,7.941-0.279l8.811,3.341
		c2.216,0.84,4.029,3.466,4.029,5.836v44.066c0,2.369-1.68,5.276-3.733,6.459L34.183,95.203c-2.054,1.183-5.371,1.109-7.37-0.164
		l-7.981-5.079c-2-1.272-3.635-4.253-3.635-6.622V38.357z"/>
</g>
<g id="ouline">
	<path class="st2" d="M15.197,38.357c0-2.37,1.761-5.122,3.912-6.115l21.062-9.725c2.152-0.993,5.725-1.119,7.941-0.279l8.811,3.341
		c2.216,0.84,4.029,3.466,4.029,5.836v44.066c0,2.369-1.68,5.276-3.733,6.459L34.183,95.203c-2.054,1.183-5.371,1.109-7.37-0.164
		l-7.981-5.079c-2-1.272-3.635-4.253-3.635-6.622V38.357z"/>
	<path class="st2" d="M30.449,95.898V49.128c0-4.028,2.97-8.755,6.6-10.504l17.305-8.337c3.63-1.749,6.599-0.057,6.599,3.76
		c0,3.816,0,6.938,0,6.938"/>
	<path class="st2" d="M30.449,95.898V49.128c0-4.028-2.938-8.818-6.529-10.645l-2.193-1.114c-3.591-1.826-6.529-0.024-6.529,4.005
		v15.888"/>
	<path class="st2" d="M60.952,29.89L42.6,26.442l-10.151,4.814l-2,9.405c0,3.231,0,8.726,0,8.726"/>
</g>
<g id="Layer_5">
</g>
</svg>
