<?xml version="1.0" encoding="utf-8"?>
<!-- Generator: Adobe Illustrator 16.0.4, SVG Export Plug-In . SVG Version: 6.00 Build 0)  -->
<!DOCTYPE svg PUBLIC "-//W3C//DTD SVG 1.1//EN" "http://www.w3.org/Graphics/SVG/1.1/DTD/svg11.dtd">
<svg version="1.1" xmlns="http://www.w3.org/2000/svg" xmlns:xlink="http://www.w3.org/1999/xlink" x="0px" y="0px"
	 width="76.291px" height="100px" viewBox="0 0 76.291 100" style="enable-background:new 0 0 76.291 100;" xml:space="preserve">
<style type="text/css">
<![CDATA[
	.st0{fill:none;stroke:#1D1D1B;stroke-width:5.6016;stroke-miterlimit:10;}
	.st1{fill:none;stroke:#1D1D1B;stroke-width:1.433;stroke-linejoin:round;stroke-miterlimit:10;}
	.st2{fill:none;stroke:#1D1D1B;stroke-width:1.2927;stroke-linejoin:round;stroke-miterlimit:10;}
	.st3{fill:none;stroke:#1D1D1B;stroke-width:1.433;stroke-miterlimit:10;}
	.st4{fill:#FFFFFF;}
	.st5{fill:none;}
	.st6{fill:none;stroke:#1D1D1B;stroke-width:5.6016;stroke-linejoin:round;stroke-miterlimit:10;}
]]>
</style>
<g id="keyline">
	<g>
		<path class="st6" d="M37.911,94.666c-0.02,0-0.038,0-0.058,0c-0.019,0-0.038,0-0.057,0H37.911z"/>
		<path class="st6" d="M59.788,33.582c0.5-0.54,0.77-1.107,0.77-1.692c0-3.613-10.139-6.542-22.647-6.542
			s-22.647,2.929-22.647,6.542c0,0.55,0.238,1.083,0.68,1.593h-0.024v50.941c0,1.042-0.656,0.886-0.656,1.943
			c0,4.577,10.109,8.287,22.59,8.298c12.48-0.012,22.59-3.721,22.59-8.298c0-1.057-0.655-0.901-0.655-1.943V33.582z"/>
	</g>
</g>
<g id="fill">
	<g>
		<path class="st4" d="M37.911,94.666c-0.02,0-0.038,0-0.058,0c-0.019,0-0.038,0-0.057,0H37.911z"/>
		<path class="st4" d="M59.788,33.582c0.5-0.54,0.77-1.107,0.77-1.692c0-3.613-10.139-6.542-22.647-6.542
			s-22.647,2.929-22.647,6.542c0,0.55,0.238,1.083,0.68,1.593h-0.024v50.941c0,1.042-0.656,0.886-0.656,1.943
			c0,4.577,10.109,8.287,22.59,8.298c12.48-0.012,22.59-3.721,22.59-8.298c0-1.057-0.655-0.901-0.655-1.943V33.582z"/>
	</g>
</g>
<g id="ouline">
	<path class="st2" d="M59.788,33.483v50.941c0,1.042,0.655,0.886,0.655,1.943c0,4.583-10.14,8.298-22.647,8.298"/>
	<path class="st2" d="M37.911,94.666c-12.508,0-22.647-3.715-22.647-8.298c0-1.057,0.656-0.901,0.656-1.943V33.483"/>
	<ellipse class="st2" cx="37.91" cy="31.89" rx="22.647" ry="6.542"/>
	<path class="st5" d="M15.263,33.483"/>
</g>
<g id="Layer_5">
</g>
</svg>
